…
-   belong to the genre *“Drama”*;
-   don’t belong to the genre *“Drama”*;
-   were filmed *after* the year 2000;
-   were filmed in 1999 *or* 2000;
-   correspond to the movie *“Little Women”*;
-   have *more than* 4.5 stars, and were released *before* 1995.

``` r
### ERROR FIXED ###
filter(movieLens, genres == "Drama")
```

    ## # A tibble: 7,757 × 7
    ##    movieId title                             year genres userId rating timestamp
    ##      <int> <chr>                            <int> <fct>   <int>  <dbl>     <int>
    ##  1      31 Dangerous Minds                   1995 Drama       1    2.5    1.26e9
    ##  2    1172 Cinema Paradiso (Nuovo cinema P…  1989 Drama       1    4      1.26e9
    ##  3    1293 Gandhi                            1982 Drama       1    2      1.26e9
    ##  4      62 Mr. Holland's Opus                1995 Drama       2    3      8.35e8
    ##  5     261 Little Women                      1994 Drama       2    4      8.35e8
    ##  6     300 Quiz Show                         1994 Drama       2    3      8.35e8
    ##  7     508 Philadelphia                      1993 Drama       2    4      8.35e8
    ##  8     537 Sirens                            1994 Drama       2    4      8.35e8
    ##  9    2702 Summer of Sam                     1999 Drama       3    3.5    1.30e9
    ## 10    3949 Requiem for a Dream               2000 Drama       3    5      1.30e9
    ## # … with 7,747 more rows

``` r
filter(movieLens, !genres == "Drama")
```

    ## # A tibble: 92,247 × 7
    ##    movieId title                            year genres  userId rating timestamp
    ##      <int> <chr>                           <int> <fct>    <int>  <dbl>     <int>
    ##  1    1029 Dumbo                            1941 Animat…      1    3      1.26e9
    ##  2    1061 Sleepers                         1996 Thrill…      1    3      1.26e9
    ##  3    1129 Escape from New York             1981 Action…      1    2      1.26e9
    ##  4    1263 Deer Hunter, The                 1978 Drama|…      1    2      1.26e9
    ##  5    1287 Ben-Hur                          1959 Action…      1    2      1.26e9
    ##  6    1339 Dracula (Bram Stoker's Dracula)  1992 Fantas…      1    3.5    1.26e9
    ##  7    1343 Cape Fear                        1991 Thrill…      1    2      1.26e9
    ##  8    1371 Star Trek: The Motion Picture    1979 Advent…      1    2.5    1.26e9
    ##  9    1405 Beavis and Butt-Head Do America  1996 Advent…      1    1      1.26e9
    ## 10    1953 French Connection, The           1971 Action…      1    4      1.26e9
    ## # … with 92,237 more rows

``` r
filter(movieLens, year > 2000)
```

    ## # A tibble: 25,481 × 7
    ##    movieId title                  year genres            userId rating timestamp
    ##      <int> <chr>                 <int> <fct>              <int>  <dbl>     <int>
    ##  1    5349 Spider-Man             2002 Action|Adventure…      3    3      1.30e9
    ##  2    5669 Bowling for Columbine  2002 Documentary            3    3.5    1.30e9
    ##  3    6377 Finding Nemo           2003 Adventure|Animat…      3    3      1.30e9
    ##  4    7153 Lord of the Rings: T…  2003 Action|Adventure…      3    2.5    1.30e9
    ##  5    7361 Eternal Sunshine of …  2004 Drama|Romance|Sc…      3    3      1.30e9
    ##  6    8622 Fahrenheit 9/11        2004 Documentary            3    3.5    1.30e9
    ##  7    8636 Spider-Man 2           2004 Action|Adventure…      3    3      1.30e9
    ##  8   44191 V for Vendetta         2006 Action|Sci-Fi|Th…      3    3.5    1.30e9
    ##  9   48783 Flags of Our Fathers   2006 Drama|War              3    4.5    1.30e9
    ## 10   50068 Letters from Iwo Jima  2006 Drama|War              3    4.5    1.30e9
    ## # … with 25,471 more rows

``` r
filter(movieLens, year == 1999 | year == 2000)
```

    ## # A tibble: 9,088 × 7
    ##    movieId title                   year genres           userId rating timestamp
    ##      <int> <chr>                  <int> <fct>             <int>  <dbl>     <int>
    ##  1    2694 Big Daddy               1999 Comedy                3    3      1.30e9
    ##  2    2702 Summer of Sam           1999 Drama                 3    3.5    1.30e9
    ##  3    2762 Sixth Sense, The        1999 Drama|Horror|My…      3    3.5    1.30e9
    ##  4    2841 Stir of Echoes          1999 Horror|Mystery|…      3    4      1.30e9
    ##  5    2858 American Beauty         1999 Drama|Romance         3    4      1.30e9
    ##  6    2959 Fight Club              1999 Action|Crime|Dr…      3    5      1.30e9
    ##  7    3510 Frequency               2000 Drama|Thriller        3    4      1.30e9
    ##  8    3949 Requiem for a Dream     2000 Drama                 3    5      1.30e9
    ##  9   27369 Daria: Is It Fall Yet?  2000 Animation|Comedy      3    3.5    1.30e9
    ## 10    2628 Star Wars: Episode I …  1999 Action|Adventur…      4    5      9.50e8
    ## # … with 9,078 more rows

``` r
filter(movieLens, title %in% "Little Women")
```

    ## # A tibble: 54 × 7
    ##    movieId title         year genres userId rating  timestamp
    ##      <int> <chr>        <int> <fct>   <int>  <dbl>      <int>
    ##  1     261 Little Women  1994 Drama       2    4    835355681
    ##  2     261 Little Women  1994 Drama      19    4    855194216
    ##  3     261 Little Women  1994 Drama      30    4    951008613
    ##  4     261 Little Women  1994 Drama      32    4    834828302
    ##  5     261 Little Women  1994 Drama      36    4    847057120
    ##  6     261 Little Women  1994 Drama      85    1    837513012
    ##  7     261 Little Women  1994 Drama      86    3    848161454
    ##  8     261 Little Women  1994 Drama      88    3.5 1239755456
    ##  9     261 Little Women  1994 Drama      95    5   1016317793
    ## 10     261 Little Women  1994 Drama     102    3    957894400
    ## # … with 44 more rows

``` r
filter(movieLens, rating > 4.5, year < 1995)
```

    ## # A tibble: 8,386 × 7
    ##    movieId title                  year genres            userId rating timestamp
    ##      <int> <chr>                 <int> <fct>              <int>  <dbl>     <int>
    ##  1     265 Like Water for Choco…  1992 Drama|Fantasy|Ro…      2      5    8.35e8
    ##  2     266 Legends of the Fall    1994 Drama|Romance|Wa…      2      5    8.35e8
    ##  3     551 Nightmare Before Chr…  1993 Animation|Childr…      2      5    8.35e8
    ##  4     589 Terminator 2: Judgme…  1991 Action|Sci-Fi          2      5    8.35e8
    ##  5     590 Dances with Wolves     1990 Adventure|Drama|…      2      5    8.35e8
    ##  6     592 Batman                 1989 Action|Crime|Thr…      2      5    8.35e8
    ##  7     318 Shawshank Redemption…  1994 Crime|Drama            3      5    1.30e9
    ##  8     356 Forrest Gump           1994 Comedy|Drama|Rom…      3      5    1.30e9
    ##  9    1197 Princess Bride, The    1987 Action|Adventure…      3      5    1.30e9
    ## 10     260 Star Wars: Episode I…  1977 Action|Adventure…      4      5    9.50e8
    ## # … with 8,376 more rows
…
``` r
### ERROR FIXED ###
movieLens %>%
  filter(!genres == "Drama") %>%
  select(title, genres, everything())
```

    ## # A tibble: 92,247 × 7
    ##    title                           genres  movieId  year userId rating timestamp
    ##    <chr>                           <fct>     <int> <int>  <int>  <dbl>     <int>
    ##  1 Dumbo                           Animat…    1029  1941      1    3      1.26e9
    ##  2 Sleepers                        Thrill…    1061  1996      1    3      1.26e9
    ##  3 Escape from New York            Action…    1129  1981      1    2      1.26e9
    ##  4 Deer Hunter, The                Drama|…    1263  1978      1    2      1.26e9
    ##  5 Ben-Hur                         Action…    1287  1959      1    2      1.26e9
    ##  6 Dracula (Bram Stoker's Dracula) Fantas…    1339  1992      1    3.5    1.26e9
    ##  7 Cape Fear                       Thrill…    1343  1991      1    2      1.26e9
    ##  8 Star Trek: The Motion Picture   Advent…    1371  1979      1    2.5    1.26e9
    ##  9 Beavis and Butt-Head Do America Advent…    1405  1996      1    1      1.26e9
    ## 10 French Connection, The          Action…    1953  1971      1    4      1.26e9
    ## # … with 92,237 more rows
…
As you already know, `mutate()` defines and inserts new variables into a
tibble. There is *another mystery function similar to `mutate()`* that
adds the new variable, but also drops existing ones. I wanted to create
an `average_rating` column that takes the `mean(rating)` across all
entries, and I only want to see that variable (i.e drop all others!) but
I forgot what that mystery function is. Can you remember?

``` r
### ERROR FIXED ### 
transmute(movieLens,
       average_rating = mean(rating))
```

    ## # A tibble: 100,004 × 1
    ##    average_rating
    ##             <dbl>
    ##  1           3.54
    ##  2           3.54
    ##  3           3.54
    ##  4           3.54
    ##  5           3.54
    ##  6           3.54
    ##  7           3.54
    ##  8           3.54
    ##  9           3.54
    ## 10           3.54
    ## # … with 99,994 more rows
…
Each entry of the movieLens table corresponds to a movie rating by a
user. Therefore, if more than one user rated the same movie, there will
be several entries for the same movie. I want to find out how many times
each movie has been reviewed, or in other words, how many times each
movie title appears in the dataset.

``` r
movieLens %>%
  group_by(title) %>%
  tally()
```

    ## # A tibble: 8,832 × 2
    ##    title                                n
    ##    <chr>                            <int>
    ##  1 ¡Three Amigos!                      31
    ##  2 ...And God Spoke                     1
    ##  3 ...And Justice for All              13
    ##  4 'burbs, The                         19
    ##  5 'Hellboy': The Seeds of Creation     1
    ##  6 'Neath the Arizona Skies             1
    ##  7 'night Mother                        3
    ##  8 'Round Midnight                      2
    ##  9 'Salem's Lot                         1
    ## 10 'Til There Was You                   4
    ## # … with 8,822 more rows

Without using `group_by()`, I want to find out how many movie reviews
there have been for each year.

``` r
### ERROR FIXED ###
movieLens %>%
  count(year)
```

    ## # A tibble: 104 × 2
    ##     year     n
    ##    <int> <int>
    ##  1  1902     6
    ##  2  1915     2
    ##  3  1916     1
    ##  4  1917     2
    ##  5  1918     2
    ##  6  1919     1
    ##  7  1920    15
    ##  8  1921    12
    ##  9  1922    28
    ## 10  1923     3
    ## # … with 94 more rows

Both `count()` and `tally()` can be grouped by multiple columns. Below,
I want to count the number of movie reviews by title and rating, and
sort the results.

``` r
### ERROR FIXED ###
movieLens %>%
  count(title, rating, sort = TRUE)
```

    ## # A tibble: 28,297 × 3
    ##    title                              rating     n
    ##    <chr>                               <dbl> <int>
    ##  1 Shawshank Redemption, The               5   170
    ##  2 Pulp Fiction                            5   138
    ##  3 Star Wars: Episode IV - A New Hope      5   122
    ##  4 Forrest Gump                            4   113
    ##  5 Schindler's List                        5   109
    ##  6 Godfather, The                          5   107
    ##  7 Forrest Gump                            5   102
    ##  8 Silence of the Lambs, The               4   102
    ##  9 Fargo                                   5   100
    ## 10 Silence of the Lambs, The               5   100
    ## # … with 28,287 more rows
…
## Exercise 4: Calculating with `group_by()`

We can calculate the mean rating by year, and store it in a new column
called `avg_rating`:

``` r
movieLens %>%
  group_by(year) %>%
  summarize(avg_rating = mean(rating))
```

    ## # A tibble: 104 × 2
    ##     year avg_rating
    ##    <int>      <dbl>
    ##  1  1902       4.33
    ##  2  1915       3   
    ##  3  1916       3.5 
    ##  4  1917       4.25
    ##  5  1918       4.25
    ##  6  1919       3   
    ##  7  1920       3.7 
    ##  8  1921       4.42
    ##  9  1922       3.80
    ## 10  1923       4.17
    ## # … with 94 more rows

Using `summarize()`, we can find the minimum and the maximum rating by
title, stored under columns named `min_rating`, and `max_rating`,
respectively.

``` r
### ERROR FIXED ###
movieLens %>%
  group_by(title) %>%
  summarise(min_rating = min(rating), 
         max_rating = max(rating))
```

    ## # A tibble: 8,832 × 3
    ##    title                            min_rating max_rating
    ##    <chr>                                 <dbl>      <dbl>
    ##  1 ¡Three Amigos!                          1          5  
    ##  2 ...And God Spoke                        1          1  
    ##  3 ...And Justice for All                  1          5  
    ##  4 'burbs, The                             1.5        4.5
    ##  5 'Hellboy': The Seeds of Creation        2          2  
    ##  6 'Neath the Arizona Skies                0.5        0.5
    ##  7 'night Mother                           5          5  
    ##  8 'Round Midnight                         0.5        4  
    ##  9 'Salem's Lot                            3.5        3.5
    ## 10 'Til There Was You                      0.5        4  
    ## # … with 8,822 more rows
…
    ## Warning in min(mass, na.rm = T): no non-missing arguments to min; returning Inf

    ## Warning in min(mass, na.rm = T): no non-missing arguments to min; returning Inf

    ## Warning in min(mass, na.rm = T): no non-missing arguments to min; returning Inf

    ## Warning in min(mass, na.rm = T): no non-missing arguments to min; returning Inf

    ## Warning in min(mass, na.rm = T): no non-missing arguments to min; returning Inf

    ## Warning in min(mass, na.rm = T): no non-missing arguments to min; returning Inf

    ## # A tibble: 38 × 3
    ##    species   height  mass
    ##    <chr>      <int> <dbl>
    ##  1 Aleena        79    15
    ##  2 Besalisk     198   102
    ##  3 Cerean       198    82
    ##  4 Chagrian     196   Inf
    ##  5 Clawdite     168    55
    ##  6 Droid         96    32
    ##  7 Dug          112    40
    ##  8 Ewok          88    20
    ##  9 Geonosian    183    80
    ## 10 Gungan       196    66
    ## # … with 28 more rows
…
